%YAML 1.1
%TAG !u! tag:unity3d.com,2011:
--- !u!1045 &1
EditorBuildSettings:
  m_ObjectHideFlags: 0
  serializedVersion: 2
  m_Scenes:
  - enabled: 1
    path: Assets/Scenes/SimModeSelector.unity
    guid: 2a2adab4f94d2a8428812b3c4db5f357
  - enabled: 1
    path: Assets/Scenes/CarDemo.unity
    guid: 48447221fb4a8864dbedfeed703bf275
  - enabled: 1
    path: Assets/Scenes/DroneDemo.unity
    guid: 012f6bdfaada17042bf7917f7d4fcbd8
  m_configObjects:
    Unity.XR.Oculus.Settings: {fileID: 11400000, guid: 07072258a68db4941bc4c91e21c64f51,
      type: 2}
    com.unity.xr.management.loader_settings: {fileID: 11400000, guid: 0d8228d4e70a69943a6c5949969c8d2f,
      type: 2}
